{
    "title": "Paginas",
    "view": "nodes",
    "icon": "fa-dashboard",
    "edit_url": "cms/pages/edit/",
    "zones": [
        {
            "tiles": [
                {
                    "title": "Tile01",
                    "module": "bpm",
                    "controller": "bpmui",
                    "function": "tile_tasks"
                },
                {
                    "title": "Tile01",
                    "module": "bpm",
                    "controller": "bpmui",
                    "function": "tile_tasks_done"
                }
                ,
                {
                    "title": "Tile01",
                    "module": "bpm",
                    "controller": "bpmui",
                    "function": "tile_cases"
                }
            ]
        },
        {
            "widgets": [
                {
                    "title": "2do",
                    "module": "bpm",
                    "controller": "bpmui",
                    "function": "widget_2do"

                },
                {
                    "title": "Cases",
                    "module": "bpm",
                    "controller": "bpmui",
                    "function": "widget_cases"

                }

            ]
        }
    ]
}
