{
    "createdBy": "Luciano Menez",
    "title": "Mapa Acción Estatal",
    "view": "layout_adminlte3",
    "zones": [
      {
        "head": [
          {
            "module": "dashboard",
            "controller": "perfil",
            "function": "head"
          }
        ]
      },
      {
        "navbar": [
          {
            "module": "dashboard",
            "controller": "perfil",
            "function": "navbar"
          }
        ]
      },
      {
        "content_header": [
          {
            "module": "estructuras",
            "controller": "nivel_1",
            "function": "content_header"
          }
        ]
      },
      {
        "sidebar": [
          {
            "module": "dashboard",
            "controller": "perfil",
            "function": "sidebar"
          }
        ]
      },
      {
        "footer": [
          {
            "module": "dashboard",
            "controller": "perfil",
            "function": "footer"
          }
        ]
      },
      {
        "scripts": [
          {
            "module": "dashboard",
            "controller": "perfil",
            "function": "scripts"
          }
        ]
      },
      {
        "content": [
          {
            "module": "dashboard",
            "controller": "nivel_2",
            "function": "contenido"
          }
        ]
      }
     ],
    "css": [
    ],

    "js": [{"{base_url}estructuras/assets/jscript/estructura.js": "Panel Script"}]



}
